paulinajezuit55@yahoo.com,Jigsaw!!12,works
petraannvazqeuz27@yahoo.com,Jigsaw!!12,works
rgordon210@hotmail.com,Jigsaw!!12,works
john.done.ip@protonmail.com,Jigsaw!!12,works
in4red77@yahoo.com,Jigsaw!!12,works
jukebox234@mail.com,Jigsaw!!12,works
zul1775@yahoo.com,Jigsaw!!12,works
peepojay@msn.com,Jigsaw!!12,works
garyd_moore@yahoo.com,Jigsaw!!12,works
letlvrfrien@yahoo.com,Jigsaw!!12,works
bobyeager55@comcast.net,Jigsaw!!12,works
tweety989900@aol.com,Jigsaw!!12,works
gary_golobay@yahoo.com,Jigsaw!!12,works
dncr980000@yahoo.com,Jigsaw!!12,works
jmk226@yahoo.com,Jigsaw!!12,works
vampirevswerewolf@yahoo.com,Jigsaw!!12,works
mrken12@asia.com,Jigsaw!!12,works
beetaylor2@yahoo.com,Jigsaw!!12,works
alfrednbx@protonmail.com,Jigsaw!!12,works
chrisseysplace@yahoo.com,Jigsaw!!12,works
menmine3@hotmail.com,Jigsaw!!12,works
ason9904@gmail.com,Jigsaw!!12,works
georgefuntom@rambler.ru,Jigsaw!!12,works
shorty54@mchsi.com,Jigsaw!!12,works
gordonfgordon@yandex.ru,Jigsaw!!12,works
greenback1@aol.com,Jigsaw!!12,works
dabkchick@yahoo.com,Jigsaw!!12,works
sexylilly820@yahoo.com,Jigsaw!!12,works
tosborne@pagecounty.k12.va.us,Jigsaw!!12,works
k_lange@att.net,Jigsaw!!12,works
qtum@mail.com,Jigsaw!!12,works
tomnjo63@juno.com,Jigsaw!!12,fails
cobalt1228@protonmail.com,Jigsaw!!12,works
mcrew1@cox.net,Jigsaw!!12,works
ladymetrot803@yahoo.com,Jigsaw!!12,works
gjhaselroth@aol.com,Jigsaw!!12,works
nickcola@email.com,Jigsaw!!12,works
t23renae@yahoo.com,Jigsaw!!12,works
joanna.moody@earthlink.net,Jigsaw!!12,works
nessarliset@yahoo.com,Jigsaw!!12,works
adonna5@yahoo.com,Jigsaw!!12,works
dct7654@yahoo.com,Jigsaw!!12,works
ccorner025@gmail.com,Jigsaw!!12,works
georgebiltoft1971@gmail.com,Jigsaw!!12,works
martha448@abcglobal.net,Jigsaw!!12,works
crshockley_88@yahoo.com,Jigsaw!!12,works
ajgmg@aol.com,Jigsaw!!12,works
cfnusa@netzero.com,Jigsaw!!12,works
irmabudisetiawan@yahoo.com,Jigsaw!!12,works
frank1@activist.com,Jigsaw!!12,works
henrybill6464@gmail.com,Jigsaw!!12,works
unluckysax48@gmail.com,Jigsaw!!12,works
korey40@yahoo.com,Jigsaw!!12,works
gaylord@cox.net,Jigsaw!!12,works
loriarcher@cox.net,Jigsaw!!12,works
pinks75dsk@yahoo.com,Jigsaw!!12,works
ugly1808@yahoo.com,Jigsaw!!12,works
bonnalicious16@yahoo.com,Jigsaw!!12,works
ksueswift@comcast.net,Jigsaw!!12,works
ashleyeray@yahoo.com,Jigsaw!!12,works
nikki_james1986@yahoo.com,Jigsaw!!12,works
franbj669@gmail.com,Jigsaw!!12,works
mschetrompf521@verizon.net,Jigsaw!!12,works
steveaustin5321@gmail.com,Jigsaw!!12,works
crazy_n_love_4u@yahoo.com,Jigsaw!!12,works
annaalex13579@gmail.com,Jigsaw!!12,works
tiarandall2@gmail.com,Jigsaw!!12,works
pyresdance@hotmail.com,Jigsaw!!12,works
mastin37@hotmail.com,Jigsaw!!12,works
pcrane1102@yahoo.com,Jigsaw!!12,works
kimpalm1028@gmail.com,Jigsaw!!12,works
windowman911@yahoo.com,Jigsaw!!12,works
worldmain@protonmail.com,Jigsaw!!12,works
michaljoy641@gmail.com,Jigsaw!!12,works
lokamike@usa.com,Jigsaw!!12,works
rector12@myself.com,Jigsaw!!12,works
t.lewis60@yahoo.com,Jigsaw!!12,works
alex.smith.00031@gmail.com,Jigsaw!!12,works
elijah_williams_jr@yahoo.com,Jigsaw!!12,works
juju8491@hotmail.com,Jigsaw!!12,works
brown.frank.0085@protonmail.com,Jigsaw!!12,works
sharonfowlerrn@gmail.com,Jigsaw!!12,works
franknorman109@aol.com,Jigsaw!!12,works
mikesoft@conwaycorp.net,Jigsaw!!12,works
chev9495@yahoo.com,Jigsaw!!12,works
bingosonia1@verizon.net,Jigsaw!!12,works
jimdakota49@gmail.com,Jigsaw!!12,works
creativejoyce@aol.com,Jigsaw!!12,works
jordan34@usa.com,Jigsaw!!12,works
janetboerger@hotmail.com,Jigsaw!!12,works
chrislewis19@comcast.net,Jigsaw!!12,works
jomfran23@protonmail.com,Jigsaw!!12,works
ruth_beliard@bellsouth.net,Jigsaw!!12,works
angel_lupe_tx@yahoo.com,Jigsaw!!12,works
vigil64@msn.com,Jigsaw!!12,works
lisalong2004@yahoo.com,Jigsaw!!12,works
frankbworn@protonmail.com,Jigsaw!!12,works
rarmstrong@msn.com,Jigsaw!!12,works
growingmall@post.com,Jigsaw!!12,works
diamedical@aol.com,Jigsaw!!12,works
parkercontractors@yahoo.com,Jigsaw!!12,works
mlrtym422@windstream.net,Jigsaw!!12,works
wmorgan1571954@yahoo.com,Jigsaw!!12,works
catronmoto@peoplepc.com,Jigsaw!!12,works
meigo1@verizon.net,Jigsaw!!12,works
bcladner@bellsouth.net,Jigsaw!!12,works
gennie1003@aol.com,Jigsaw!!12,works
specialkid25@yahoo.com,Jigsaw!!12,works
tbulgara91@yahoo.com,Jigsaw!!12,works
samirnofal29@yahoo.com,Jigsaw!!12,fails
stepnich35@yahoo.com,Jigsaw!!12,works
henryjack3381@gmail.com,Jigsaw!!12,works
sehall@cablenet-va.com,Jigsaw!!12,works
allenparkjags44@aol.com,Jigsaw!!12,works
lspieller@aol.com,Jigsaw!!12,works
vimpire49@yahoo.com,Jigsaw!!12,works
frankydylan34@gmail.com,Jigsaw!!12,works
babayaga4373@gmail.com,Jigsaw!!12,works
ellensmall@yahoo.com,Jigsaw!!12,works
shanewatson0432@gmail.com,Jigsaw!!12,works
sdfisco77@aol.com,Jigsaw!!12,works
wendyglaser70@hotmail.com,Jigsaw!!12,works
cisneye@bismarck.k12.il.us,Jigsaw!!12,works
myskullzzz@yahoo.com,Jigsaw!!12,works
neener45@live.com,Jigsaw!!12,works
jarvisleojean@hotmail.com,Jigsaw!!12,works
tonystark3919@gmail.com,Jigsaw!!12,works
wesleysalvo@tds.net,Jigsaw!!12,works
brown.james.0086j@protonmail.com,Jigsaw!!12,works
donna@primadonnapr.com,Jigsaw!!12,works
jaavon@bellsouth.net,Jigsaw!!12,works
gtsick2@yahoo.com,Jigsaw!!12,works
fredbrown_29510@yahoo.com,Jigsaw!!12,works
jessica_russell33@yahoo.com,Jigsaw!!12,works
fric05@yahoo.com,Jigsaw!!12,works
easterjohn32@protonmail.com,Jigsaw!!12,works
brown.james.0085@gmail.com,Jigsaw!!12,works
rmathis@kacc.com,Jigsaw!!12,works
struckstyn2@gmail.com,Jigsaw!!12,works
soul_2_soul7@yahoo.com,Jigsaw!!12,works
cococountycassidy@gmail.com,Jigsaw!!12,works
raquelrogers@rocketmail.com,Jigsaw!!12,works
thegame52464@yahoo.com,Jigsaw!!12,works
fgxcom@protonmail.com,Jigsaw!!12,works
rudy_p_21@yahoo.com,Jigsaw!!12,works
beetattoobast96@yahoo.com,Jigsaw!!12,works
clearlakebob29@yahoo.com,Jigsaw!!12,works
saberry@hotmail.com,Jigsaw!!12,works
melody4853@sbcglobal.net,Jigsaw!!12,works
f.tanaya@yahoo.com,Jigsaw!!12,works
lovelynpink2001@yahoo.com,Jigsaw!!12,works
rosewood152003@yahoo.com,Jigsaw!!12,works
usd2besoft@aol.com,Jigsaw!!12,works
comrade@post.com,Jigsaw!!12,works
franklu3@laposte.net,Jigsaw!!12,works
georgekent@laposte.net,Jigsaw!!12,works
pstarkie@gmail.com,Jigsaw!!12,works
samcrain@att.net,Jigsaw!!12,works
kmbhandari2000@yahoo.co.in,Jigsaw!!12,works
worldmain98@protonmail.com,Jigsaw!!12,works
mz.furley08@yahoo.com,Jigsaw!!12,works
mpjohnson77@yahoo.com,Jigsaw!!12,works
okjoeq@mail.com,Jigsaw!!12,works
franknorman426@yahoo.com,Jigsaw!!12,works
hendricksonfaithful@yahoo.com,Jigsaw!!12,fails
angelthms0568@yahoo.com,Jigsaw!!12,works
scouvillon1@cox.net,Jigsaw!!12,works
judyloera09@yahoo.com,Jigsaw!!12,works
weeble712001@yahoo.com,Jigsaw!!12,works
grownsexysexygrownsexygrown@yahoo.com,Jigsaw!!12,fails
crazie_chicana@hotmail.com,Jigsaw!!12,works
frankjg1223@aol.com,Jigsaw!!12,works
swampcone@protonmail.com,Jigsaw!!12,works
janicelbutler@hotmail.com,Jigsaw!!12,works
kimmitini@yahoo.com,Jigsaw!!12,works
cmseagles@gmail.com,Jigsaw!!12,works
shoshana1946@gmail.com,Jigsaw!!12,works
thekidsbeach@yahoo.com,Jigsaw!!12,works
ccw12805@aol.com,Jigsaw!!12,works
beverly.cross77@yahoo.com,Jigsaw!!12,works
bhamsfinest22@yahoo.com,Jigsaw!!12,works
toledom77@yahoo.com,Jigsaw!!12,works
jshook05@gmail.com,Jigsaw!!12,works
d_hunter21@hotmail.com,Jigsaw!!12,works
rwood112000@yahoo.com,Jigsaw!!12,fails
lil_baybee_guh916@yahoo.com,Jigsaw!!12,works
drcarpenter@esn.net,Jigsaw!!12,fails
nancysmiami@aol.com,Jigsaw!!12,works
woodworker1219@aol.com,Jigsaw!!12,fails
brownsugar2950@yahoo.com,Jigsaw!!12,fails
emiliobrac@msn.com,Jigsaw!!12,works
soar1970@yahoo.com,Jigsaw!!12,works
kevinsmith9341@gmail.com,Jigsaw!!12,works
matt@theeggaragency.com,Jigsaw!!12,works
mezzyjessi@yahoo.com,Jigsaw!!12,works
pandahua@aol.com,Jigsaw!!12,works
ecookie@gmail.com,Jigsaw!!12,works
johnkkeith@yandex.ru,Jigsaw!!12,works
b.bhth@verizon.net,Jigsaw!!12,works
kkarr@comcast.net,Jigsaw!!12,works
ceazeonyx3588@aol.com,Jigsaw!!12,works
babygrl696926@aol.com,Jigsaw!!12,works
babyjune129@aol.com,Jigsaw!!12,works
franjihn79p007@gmail.com,Jigsaw!!12,works
sistercee@hotmail.com,Jigsaw!!12,works
dalesmith4765@gmail.com,Jigsaw!!12,works
alfreddbo@protonmail.com,Jigsaw!!12,works
bigdogg_50595@yahoo.com,Jigsaw!!12,works
eelove73@yahoo.com,Jigsaw!!12,works
bjen23@hotmail.com,Jigsaw!!12,works
adelittadiaz@yahoo.com,Jigsaw!!12,works
princesslinda18@aol.com,Jigsaw!!12,works
kendelljim@laposte.net,Jigsaw!!12,works
ryanharms87@yahoo.com,Jigsaw!!12,works
ljschultz@dslextreme.com,Jigsaw!!12,works
donnydx@gmail.com,Jigsaw!!12,works
kklgelhofer349@gardener.com,Jigsaw!!12,works
jamurray1980@hotmail.com,Jigsaw!!12,works
rjneubertle@aol.com,Jigsaw!!12,works
jomfran92@gmail.com,Jigsaw!!12,works
dildog@gmail.com,Jigsaw!!12,works
keg62006@yahoo.com,Jigsaw!!12,works
r.rivera78@yahoo.com,Jigsaw!!12,works
jeff.smock@gmail.com,Jigsaw!!12,works
aguirrer@aol.com,Jigsaw!!12,works
franciscoruiz1@peoplepc.com,Jigsaw!!12,works
sbhabel@hotmail.com,Jigsaw!!12,works
indira.67@hotmail.com,Jigsaw!!12,works
bigevilmomma@yahoo.com,Jigsaw!!12,works
foxxie@msn.com,Jigsaw!!12,works
trimchun@asia.com,Jigsaw!!12,works
saraiyah_27@yahoo.com,Jigsaw!!12,works
emo.kittykat@yahoo.com,Jigsaw!!12,works
franjohn79p007@gmail.com,Jigsaw!!12,works
michaelshagawat@yahoo.com,Jigsaw!!12,works
angelbabymelancholic@yahoo.com,Jigsaw!!12,works
garing510@yahoo.com,Jigsaw!!12,works
chandler_r_foster@yahoo.com,Jigsaw!!12,works
henryj23@laposte.net,Jigsaw!!12,works
syntaman22@protonmail.com,Jigsaw!!12,works
cumston@mail.com,Jigsaw!!12,works
bobkell@post.com,Jigsaw!!12,works
cweidman944@gmail.com,Jigsaw!!12,works
emcahp@yahoo.com,Jigsaw!!12,works
cwhite1227@yahoo.com,Jigsaw!!12,works
christobar9@gmail.com,Jigsaw!!12,works
kas529@gmail.com,Jigsaw!!12,works
brookssamantha591@gmail.com,Jigsaw!!12,works
myhoneyterry2004@yahoo.com,Jigsaw!!12,works
jimsond10@protonmail.com,Jigsaw!!12,works
ladyvanity@juno.com,Jigsaw!!12,works
tbuddy10@yahoo.com,Jigsaw!!12,works
lauren86michelle@yahoo.com,Jigsaw!!12,works
a_juliaann@yahoo.com,Jigsaw!!12,works
jcpohl@bellsouth.net,Jigsaw!!12,works
monsanto50@hotmail.com,Jigsaw!!12,works
pathbat@mail.com,Jigsaw!!12,works
lindseyt21787@yahoo.com,Jigsaw!!12,works
scalisinurse@yahoo.com,Jigsaw!!12,works
tbirdsong@live.com,Jigsaw!!12,works
hawaiian-66@hotmail.com,Jigsaw!!12,works
jobs222@tanner.com,Jigsaw!!12,fails
jhaskins1997@gmail.com,Jigsaw!!12,works
michaelallen4@yahoo.com,Jigsaw!!12,works
crysnowlin@yahoo.com,Jigsaw!!12,works
cookie6430@yahoo.com,Jigsaw!!12,works
qtonjim@protonmail.com,Jigsaw!!12,works
ringsix@gmail.com,Jigsaw!!12,works
brittanyking_20@yahoo.com,Jigsaw!!12,works
paulheyman6321@gmail.com,Jigsaw!!12,works
dagreat1summer@hotmail.com,Jigsaw!!12,works
mrherry103@gmail.com,Jigsaw!!12,works
jodyjava04@yahoo.com,Jigsaw!!12,works
jimdon23@protonmailcom,Jigsaw!!12,fails
randysue2@msn.com,Jigsaw!!12,works
alfredbno@protonmailcom,Jigsaw!!12,fails
socalmoxie@yahoo.com,Jigsaw!!12,works
judiloo7@yahoo.com,Jigsaw!!12,works
scarlettbarker1@yahoo.com,Jigsaw!!12,works
lukedong@protonmail.com,Jigsaw!!12,works
js5499612@gmail.com,Jigsaw!!12,works
walkdt@swbell.net,Jigsaw!!12,works
sexy_tracy27@yahoo.com,Jigsaw!!12,works
dltarq@comcast.net,Jigsaw!!12,works
mechcard@yahoo.com,Jigsaw!!12,fails
babyelocin@hotmail.com,Jigsaw!!12,works
ambervalentyn@yahoo.com,Jigsaw!!12,works
dean_riggs@yahoo.com,Jigsaw!!12,works
franklubsky1@aol.com,Jigsaw!!12,works
dode1001@aol.com,Jigsaw!!12,works
bobharley2@protonmail.com,Jigsaw!!12,works
jrsimms@comcast.net,Jigsaw!!12,works
alconman@protonmail.com,Jigsaw!!12,works
swhatley54@hotmail.com,Jigsaw!!12,fails
farnandezpaul312@gmail.com,Jigsaw!!12,works
givit2me29067@yahoo.com,Jigsaw!!12,works
confram@email.com,Jigsaw!!12,fails
wally0989@yahoo.com,Jigsaw!!12,works
kelly@woodhillfinancial.com,Jigsaw!!12,works
molly_jimkay@hotmail.com,Jigsaw!!12,works
michellemoore2211@yahoo.com,Jigsaw!!12,works
johnmartin3381@gmail.com,Jigsaw!!12,works
syreetareed@ymail.com,Jigsaw!!12,works
debra_2004us@yahoo.com,Jigsaw!!12,fails
col_toby45@yahoo.com,Jigsaw!!12,works
stevensmith5329@gmail.com,Jigsaw!!12,works
franklubsky12@rambler.ru,Jigsaw!!12,works
kcmudd@aol.com,Jigsaw!!12,works
mart1994@aol.com,Jigsaw!!12,works
rastanley57@yahoo.com,Jigsaw!!12,works
waflemike@usa.com,Jigsaw!!12,works
crazedcowgirl65@yahoo.com,Jigsaw!!12,works
kentjohn21@protonmail.com,Jigsaw!!12,works
kaylor5476@aol.com,Jigsaw!!12,fails
rwilson844@verizon.net,Jigsaw!!12,works
krokodille.dandy@mail.com,Jigsaw!!12,works
rick_aka_rickey_jefferson_jr@yahoo.com,Jigsaw!!12,works
odessah@penmac.com,Jigsaw!!12,works
walfred@laposte.net,Jigsaw!!12,works
finman14@hotmail.com,Jigsaw!!12,works
annmartin659@gmail.com,Jigsaw!!12,works
yongtam12@email.com,Jigsaw!!12,works
irmabolstad@yahoo.com,Jigsaw!!12,works
teng_deng@yahoo.com,Jigsaw!!12,works
jimcor@mail.com,Jigsaw!!12,works
bobbievanbuskirk@yahoo.com,Jigsaw!!12,works
xxmorbuzxx@yahoo.com,Jigsaw!!12,works
roseyblack@comcast.net,Jigsaw!!12,works
atlantis1278@protonmail.com,Jigsaw!!12,works
bf84641@gmail.com,Jigsaw!!12,works
gal@netscape.com,Jigsaw!!12,works
marsha_vaughan@yahoo.com,Jigsaw!!12,works
natisha100@bellsouth.net,Jigsaw!!12,works
johnmartin5325@gmail.com,Jigsaw!!12,works
sarahpritt32@yahoo.com,Jigsaw!!12,works
jamabaa@yahoo.com,Jigsaw!!12,works
wondercam@protonmail.com,Jigsaw!!12,works
peanut4580@yahoo.com,Jigsaw!!12,works
higugu@aim.com,Jigsaw!!12,works
earlypowell@comcast.net,Jigsaw!!12,fails
island.laydee.81@live.com,Jigsaw!!12,works
michaelbucki@yahoo.com,Jigsaw!!12,works
robert.stevens20@gmail.com,Jigsaw!!12,works
rwarren001@neb.rr.com,Jigsaw!!12,works
zcarmenscarmen123@yahoo.com,Jigsaw!!12,works
rudolfjems49@gmail.com,Jigsaw!!12,works
christinewhardy@hotmail.com,Jigsaw!!12,works
jafasa03@yahoo.com,Jigsaw!!12,works
jon45@gmail.com,Jigsaw!!12,works
michelle.walter@aurora.org,Jigsaw!!12,works
kevwill29@laposte.net,Jigsaw!!12,works
dtcusa1@aol.com,Jigsaw!!12,works
joe.marquez@oncor.com,Jigsaw!!12,works
lovett@conpoint.com,Jigsaw!!12,works
garzaj22@msn.com,Jigsaw!!12,works
cumston@protonmail.com,Jigsaw!!12,works
lordcalvert56@yahoo.com,Jigsaw!!12,works
sestkk@netzero.com,Jigsaw!!12,works
ddrleggett@yahoo.com,Jigsaw!!12,works
biggloss2@aol.com,Jigsaw!!12,works
crystalnmark@hotmail.com,Jigsaw!!12,works
dregdonn@usa.com,Jigsaw!!12,works
allenbland0308@aim.com,Jigsaw!!12,works
aloyianinc220@yahoo.com,Jigsaw!!12,works
mbarry57@aol.com,Jigsaw!!12,works
lkue@protonmail.com,Jigsaw!!12,works
lillygirl3000@yahoo.com,Jigsaw!!12,works
michaelabg@gmail.com,Jigsaw!!12,works
rgoebel@bergerchevy.com,Jigsaw!!12,works
xmike23@protonmail.com,Jigsaw!!12,works
bill@oakcrestmortgage.com,Jigsaw!!12,works
mojoaccardi@gmail.com,Jigsaw!!12,works
dgerfdggycbryant@bellsouth.net,Jigsaw!!12,works
dxcarr07@yahoo.com,Jigsaw!!12,works
grandmahibbs@yahoo.com,Jigsaw!!12,works
alfreddno@protonmail.com,Jigsaw!!12,works
landdogger2bee@yahoo.com,Jigsaw!!12,works
bassplayerjanet@yahoo.com,Jigsaw!!12,works
kissing_you_is_heaven_2002@yahoo.com,Jigsaw!!12,works
tbaumann@neb.rr.com,Jigsaw!!12,works
msheila@ymail.com,Jigsaw!!12,works
hellokitten@hotmail.com,Jigsaw!!12,works
Jonjaloakley@gmail.com,Jigsaw!!12,works
Kritikarany6@gmail.com,Jigsaw!!12,works
Monnasona044@gmail.com,Jigsaw!!12,works
Releymaryy@gmail.com,Jigsaw!!12,fails
Molyyymaryy@gmail.com,Jigsaw!!12,works
Motymoyna58@gmail.com,Jigsaw!!12,works
Maryreley47@gmail.com,Jigsaw!!12,works
Releymary388@gmail.com,Jigsaw!!12,works
Jcikajcika413@gmail.com,Jigsaw!!12,works
Khielvhon@gmail.com,Jigsaw!!12,works
Goutampost6@gmail.com,Jigsaw!!12,works
KeliinLebsack12@gmail.com,Jigsaw!!12,works
Molymary1@gmail.com,Jigsaw!!12,works
Titoyosnit@gmail.com,Jigsaw!!12,works
Onlymetoy@gmail.com,Jigsaw!!12,works
Adamasjany@gmail.com,Jigsaw!!12,works
Kuphalimani@gmail.com,Jigsaw!!12,works
Kumarkajol65@gmail.com,Jigsaw!!12,works
molymeri2@gmail.com,Jigsaw!!12,works
merimoly957@gmail.com,Jigsaw!!12,works
molymeri66@gmail.com,Jigsaw!!12,works
merimoly249@gmail.com,Jigsaw!!12,works
merimoly3@gmail.com,Jigsaw!!12,fails
molymeri405@gmail.com,Jigsaw!!12,works
merimoly21@gmail.com,Jigsaw!!12,works
molymeri602@gmail.com,Jigsaw!!12,works
merimoly4@gmail.com,Jigsaw!!12,works
merimoly778@gmail.com,Jigsaw!!12,works
mmeri4938@gmail.com,Jigsaw!!12,works
thielwilma952@gmail.com,Jigsaw!!12,works
franklinshanes333@gmail.com,Jigsaw!!12,works
lelandsoloman64@gmail.com,Jigsaw!!12,works
sagoralmainariful@gmail.com,Jigsaw!!12,fails
vorauegsuton@gmail.com,Jigsaw!!12,works
shivoydfdgsuton@gmail.com,Jigsaw!!12,fails
jopramo86@gmail.com,Jigsaw!!12,works
gdthvotaneutgy@gmail.com,Jigsaw!!12,works
sogormijanalaminariful67@gmail.com,Jigsaw!!12,works
dshhssjhsh@gmail.com,Jigsaw!!12,works
nicdesalgarde@gmail.com,Jigsaw!!12,works
maddsonskshzara@gmail.com,Jigsaw!!12,works
tisrebbdaskwi@gmail.com,Jigsaw!!12,works
lexzenderzene417@gmail.com,Jigsaw!!12,works
votsentysutn@gmail.com,Jigsaw!!12,works
nicarhumfusrra@gmail.com,Jigsaw!!12,works
hasreawasalkarily@gmail.com,Jigsaw!!12,works
alabaalana156@gmail.com,Jigsaw!!12,works
Gangzhdbnxb30@gmail.com,Jigsaw!!12,works
lgillenwater73@gmail.com,Jigsaw!!12,works
gasher916@gmail.com,Jigsaw!!12,works
carmeloyale318@gmail.com,Jigsaw!!12,works
yalec39@gmail.com,Jigsaw!!12,works
donelsonadam557@gmail.com,Jigsaw!!12,works
kalishnorbert2@gmail.com,Jigsaw!!12,works
nocolasjaros452@gmail.com,Jigsaw!!12,works
szymanskimarco9@gmail.com,Jigsaw!!12,works
vkeithdoering128@gmail.com,Jigsaw!!12,works
delmersprinkle85@gmail.com,Jigsaw!!12,works
bixbyjamal08@gmail.com,Jigsaw!!12,works
dcarney283@gmail.com,Jigsaw!!12,works
nichelledrews245@gmail.com,Jigsaw!!12,works
ashleighcloyd1@gmail.com,Jigsaw!!12,works
cotterdenice39@gmail.com,Jigsaw!!12,works
assuntahaefner@gmail.com,Jigsaw!!12,works
pardosuzie6@gmail.com,Jigsaw!!12,works
pedrogussie@gmail.com,Jigsaw!!12,works
martineirmgard@gmail.com,Jigsaw!!12,works
krizansharon@gmail.com,Jigsaw!!12,works
lilliandonahue5@gmail.com,Jigsaw!!12,works
yaelsable@gmail.com,Jigsaw!!12,works
chiekocroyle7@gmail.com,Jigsaw!!12,works
touchstonemargurite656@gmail.com,Jigsaw!!12,works
buckalewmaegan@gmail.com,Jigsaw!!12,works
droletnelia4@gmail.com,Jigsaw!!12,works
dharshberger865@gmail.com,Jigsaw!!12,works
flowerpiper57@gmail.com,Jigsaw!!12,works
nparr1141@gmail.com,Jigsaw!!12,works
michikoconniff7@gmail.com,Jigsaw!!12,works
lizzetteslavin@gmail.com,Jigsaw!!12,works
lavonavital2@gmail.com,Jigsaw!!12,works
tracyjohnsphd418@yahoo.com,Jigsaw!!12,works
alaminhosdains@gmail.com,Jigsaw!!12,works
vorauegsutonn@gmail.com,Jigsaw!!12,works
shivoydfdgsutonn@gmail.com,Jigsaw!!12,works
jopramo866@gmail.com,Jigsaw!!12,works
gdthvotaneutgyy@gmail.com,Jigsaw!!12,works
pjachmin67@gmail.com,Jigsaw!!12,works
nicdesalgardee@gmail.com,Jigsaw!!12,works
maddsonskshzaraa@gmail.com,Jigsaw!!12,works
tisrebbdaskwii@gmail.com,Jigsaw!!12,works
lexzenderzene4177@gmail.com,Jigsaw!!12,works
votsentysutnn@gmail.com,Jigsaw!!12,works
nicarhumfusrraa@gmail.com,Jigsaw!!12,works
hasreawasalkarilyy@gmail.com,Jigsaw!!12,works
Tamcatyu30@gmail.com,Jigsaw!!12,works
TaiShiffer@outlook.com,Jigsaw!!12,works
BobbiChoi@outlook.com,Jigsaw!!12,works
ShantellMurtha@outlook.com,Jigsaw!!12,works
RosalinaMeier@outlook.com,Jigsaw!!12,works
OnieTardif@outlook.com,Jigsaw!!12,works
JamesGribble@outlook.com,Jigsaw!!12,works
CariMarion@outlook.com,Jigsaw!!12,works
BellaFavela@outlook.com,Jigsaw!!12,works
QuianaArtis@outlook.com,Jigsaw!!12,works
OliviaPinion@outlook.com,Jigsaw!!12,works
JamikaLanclos@outlook.com,Jigsaw!!12,works
YvoneChaparro@outlook.com,Jigsaw!!12,works
esmeallnoman57@gmail.com,Jigsaw!!12,works
sarabintesmith470@gmail.com,Jigsaw!!12,works
karlali57489@gmail.com,Jigsaw!!12,works
JacobMichael5462312@gmail.com,Jigsaw!!12,works
exanderposeph237648@gmail.com,Jigsaw!!12,works
tommyweaver3542@gmail.com,Jigsaw!!12,works
SIBUSKULSURDAR693@gmail.com,Jigsaw!!12,works
alfetjordanr5u636@gmail.com,Jigsaw!!12,works
crishjonson4763125689@gmail.com,Jigsaw!!12,works
jonsonalljon57@gmail.com,Jigsaw!!12,works
sarabintewood46@gmail.com,Jigsaw!!12,works
michealabuallmorkel679@gmail.com,Jigsaw!!12,works
crishabualljon58249@gmail.com,Jigsaw!!12,works
MasonRoberte465456@gmail.com,Jigsaw!!12,works
BichaelEichard23568@gmail.com,Jigsaw!!12,works
hickeyronny28@gmail.com,Jigsaw!!12,works
jagosto842@gmail.com,Jigsaw!!12,works
eliseobrenneman3@gmail.com,Jigsaw!!12,works
jeraldj679@gmail.com,Jigsaw!!12,works
hueyj5333@gmail.com,Jigsaw!!12,works
clftnborel@gmail.com,Jigsaw!!12,works
haranschull4154@gmail.com,Jigsaw!!12,works
emmettvinyard424@gmail.com,Jigsaw!!12,works
BrittaniDefranco@outlook.com,Jigsaw!!12,works
LashandaLavender@outlook.com,Jigsaw!!12,works
ErnaHuntsberry@outlook.com,Jigsaw!!12,fails
JesseniaKerr@outlook.com,Jigsaw!!12,works
DianTomblin@outlook.com,Jigsaw!!12,works
VerlaStokely@outlook.com,Jigsaw!!12,works
ArmidaPearson@outlook.com,Jigsaw!!12,works
TonyaAbsher@outlook.com,Jigsaw!!12,works
rpudelko@hotmail.com,Jigsaw!!12,works
eddywinny@aol.com,Jigsaw!!12,works
maynard.heins@aol.com,Jigsaw!!12,works
nancy.sipes@yahoo.com,Jigsaw!!12,works
bzilly@aol.com,Jigsaw!!12,works
karen.elwell@yahoo.com,Jigsaw!!12,works
lauren.applebaum@hotmail.com,Jigsaw!!12,works
daziya04@aol.com,Jigsaw!!12,works
ysantana95@sprintpcs.com,Jigsaw!!12,works
leannel@hotmail.com,Jigsaw!!12,works
jamies1@iwon.com,Jigsaw!!12,works
kamank1@peoplepc.com,Jigsaw!!12,works
jcorreia@aol.com,Jigsaw!!12,works
stmiddlebrook@yahoo.com,Jigsaw!!12,works
jhegedus@lycos.com,Jigsaw!!12,works
ronnie.grill@hotmail.com,Jigsaw!!12,works
tdavenport@geocities.com,Jigsaw!!12,works
jortega@ptd.net,Jigsaw!!12,works
badactin@aol.com,Jigsaw!!12,works
vera.jeffries@charter.net,Jigsaw!!12,works
rsavereide@worldnet.att.net,Jigsaw!!12,works
bjones1792@live.com,Jigsaw!!12,works
neworleansgirl1@aol.com,Jigsaw!!12,works
catherine.albuquerque@hotmail.com,Jigsaw!!12,works
estella.carter@yahoo.com,Jigsaw!!12,works
acoquyt@yahoo.com,Jigsaw!!12,works
kimileef@hotmail.com,Jigsaw!!12,works
tbanish@frontiernet.net,Jigsaw!!12,works
julie.yarbrough@yahoo.com,Jigsaw!!12,works
ckubit@geocities.com,Jigsaw!!12,works
mmahaffey@cs.com,Jigsaw!!12,works
balouidor@excite.com,Jigsaw!!12,works
gmyers@cs.com,Jigsaw!!12,works
mrobert@worldnet.att.net,Jigsaw!!12,fails
viola0212@aol.com,Jigsaw!!12,works
peter.demasi@charter.net,Jigsaw!!12,works
antoinette.hargrove@worldnet.att.net,Jigsaw!!12,works
j_helmer@bellsouth.net,Jigsaw!!12,works
rshapard@aol.com,Jigsaw!!12,works
sthomas3692@hotmail.com,Jigsaw!!12,works
jfranzblau@worldnet.att.net,Jigsaw!!12,fails
citycowboy1784@yahoo.com,Jigsaw!!12,works
starrillion@aol.com,Jigsaw!!12,works
unicornio_gris@yahoo.com,Jigsaw!!12,works
samrit@aol.com,Jigsaw!!12,works
beyonkag@msn.com,Jigsaw!!12,works
queenb8285@aol.com,Jigsaw!!12,works
grant.sawyer@yahoo.com,Jigsaw!!12,works
laura.hwang@yahoo.com,Jigsaw!!12,works
donna.hodge@comcast.net,Jigsaw!!12,works
edward.ritchie@earthlink.net,Jigsaw!!12,works
icurtis@att.net,Jigsaw!!12,works
renelle.jackson@hotmail.com,Jigsaw!!12,works
brookew@ix.netcom.com,Jigsaw!!12,works
BALEXISH@YAHOO.COM,Jigsaw!!12,works
elizabeth.olson@att.net,Jigsaw!!12,works
cherbolsheimer@hotmail.com,Jigsaw!!12,works
clifford.price@bellsouth.net,Jigsaw!!12,works
TEAMCELICA05@AOL.COM,Jigsaw!!12,works
bdeweese@aol.com,Jigsaw!!12,works
oneinthisworld55@yahoo.com,Jigsaw!!12,works
eddier@ameritrade.com,Jigsaw!!12,works
ahowells@twcny.rr.com,Jigsaw!!12,works
adriannee@msn.com,Jigsaw!!12,works
clifton.hibbert@rochester.rr.com,Jigsaw!!12,works
mpfarr@hotmail.com,Jigsaw!!12,works
nursepduncan@aol.com,Jigsaw!!12,works
gilbert.smith@comcast.net,Jigsaw!!12,works
charity.green@aol.com,Jigsaw!!12,works
danny.gallegos@yahoo.com,Jigsaw!!12,works
jsukoop@ptd.net,Jigsaw!!12,works
jerry.blaine@hotmail.com,Jigsaw!!12,works
amatkarimov@yahoo.com,Jigsaw!!12,works
chiefmuy32@hotmail.com,Jigsaw!!12,works
centropyge1@aol.com,Jigsaw!!12,works
vpowell@earthlink.net,Jigsaw!!12,works
dennis.austin@aol.com,Jigsaw!!12,works
lbrown217@yahoo.com,Jigsaw!!12,works
stuart.byram@cs.com,Jigsaw!!12,works
cloporto@aol.com,Jigsaw!!12,works
belinda.stuart@hotmail.com,Jigsaw!!12,works
swimcj@yahoo.com,Jigsaw!!12,works
april.steinberg@hotmail.com,Jigsaw!!12,works
tshavor@excite.com,Jigsaw!!12,works
gumomar@yahoo.com,Jigsaw!!12,works
stemmanchester@aol.com,Jigsaw!!12,works
etta.vaughn@msn.com,Jigsaw!!12,works
hoffmonica@yahoo.com,Jigsaw!!12,works
mellabrneyes1@aol.com,Jigsaw!!12,works
lklein@bright.net,Jigsaw!!12,works
letha.burton@worldnet.att.net,Jigsaw!!12,works
takright@cfl.rr.com,Jigsaw!!12,works
albert.velez@hotmail.com,Jigsaw!!12,works
bamboozzle14@yahoo.com,Jigsaw!!12,works
james.curran@att.net,Jigsaw!!12,works
tina.morella@yahoo.com,Jigsaw!!12,works
vdaraseng@att.net,Jigsaw!!12,works
donald.jordan@comcast.net,Jigsaw!!12,works
susan.goodwin@yahoo.com,Jigsaw!!12,fails
cdonovan@earthlink.net,Jigsaw!!12,works
amsledge1@yahoo.com,Jigsaw!!12,works
hlkll@yahoo.com,Jigsaw!!12,works
kmiller4133@yahoo.com,Jigsaw!!12,works
lisa.myoung@comcast.net,Jigsaw!!12,works
mark.holtz1@yahoo.com,Jigsaw!!12,works
josefina.vizcarra@latinmail.com,Jigsaw!!12,works
alwaysproblems40@aol.com,Jigsaw!!12,works
asturdivant@att.net,Jigsaw!!12,fails
adittfie@amfam.com,Jigsaw!!12,works
berniceg@worldnet.att.net,Jigsaw!!12,works
jose.sanchez10@yahoo.com,Jigsaw!!12,works
ellen.dunaj@hotmail.com,Jigsaw!!12,works
psandefur@pacbell.net,Jigsaw!!12,works
cmoryacohenyahoocom@yahoo.com,Jigsaw!!12,works
lacey.challender@aol.com,Jigsaw!!12,works
marion.pope@dell.com,Jigsaw!!12,works
pwhgcs@earthlink.com,Jigsaw!!12,works
darlene.coleman@charter.net,Jigsaw!!12,works
8r0b@ameritrade.com,Jigsaw!!12,works
heather.brown@ameritech.net,Jigsaw!!12,works
bskidgel@bellsouth.net,Jigsaw!!12,works
lisa.marrero@yahoo.com,Jigsaw!!12,works
deborah.fessel@cox.net,Jigsaw!!12,works
blake.starkey@hotmail.com,Jigsaw!!12,works
rbrockerman@tampabay.rr.com,Jigsaw!!12,works
everett.brand@nc.rr.com,Jigsaw!!12,works
pamela.hobbs@citlink.net,Jigsaw!!12,works
jromas@att.net,Jigsaw!!12,works
kmcguire@ameritrade.com,Jigsaw!!12,works
ldebruhl@lycos.com,Jigsaw!!12,works
angealbe@aol.com,Jigsaw!!12,works
vhershovitz@hotmail.com,Jigsaw!!12,works
jowens2@aol.com,Jigsaw!!12,works
mtrzaska@ameritech.net,Jigsaw!!12,works
rallis@angelfire.com,Jigsaw!!12,works
kbankard@aol.com,Jigsaw!!12,works
jcuba@comcast.net,Jigsaw!!12,works
dianep@frontiernet.net,Jigsaw!!12,works
ralph.galea@aol.com,Jigsaw!!12,works
theodius.bush@hotmail.com,Jigsaw!!12,works
jlopez9@aol.com,Jigsaw!!12,fails
marie.taggart@yahoo.com,Jigsaw!!12,works
latanya.young@aol.com,Jigsaw!!12,fails
britonw72@aol.com,Jigsaw!!12,works
azembillas@hotmail.com,Jigsaw!!12,fails
swrezenski71@yahoo.com,Jigsaw!!12,works
imurxmaspal@aol.com,Jigsaw!!12,works
svglisan@abingdon.net,Jigsaw!!12,works
lherold@localnet.com,Jigsaw!!12,works
shofschulte@aol.com,Jigsaw!!12,works
chunfuc@optonline.net,Jigsaw!!12,works
heather.austin@aol.com,Jigsaw!!12,works
ssnarey@yahoo.com,Jigsaw!!12,works
marisol.medrano@aol.com,Jigsaw!!12,works
lnorthey@swbell.net,Jigsaw!!12,works
mercierl@yahoo.com,Jigsaw!!12,works
jeffrey.hurley@aol.com,Jigsaw!!12,works
wvoss@netscape.net,Jigsaw!!12,works
jperrymon26@yahoo.com,Jigsaw!!12,works
pvappie@worldnet.att.net,Jigsaw!!12,works
hardas78@yahoo.com,Jigsaw!!12,works
erica.ramirez@aol.com,Jigsaw!!12,works
schoat@yahoo.com,Jigsaw!!12,works
lhamiter@netscape.net,Jigsaw!!12,works
skaterbabe7771@aol.com,Jigsaw!!12,works
lance.lambert@aol.com,Jigsaw!!12,works
tsmith3141@hotmail.com,Jigsaw!!12,works
cloiedog@aol.com,Jigsaw!!12,works
ahughesone@yahoo.com,Jigsaw!!12,fails
richard.newby@yahoo.com,Jigsaw!!12,works
leola.whitaker@hotmail.com,Jigsaw!!12,works
dconnors@centurytel.net,Jigsaw!!12,works
marts@dell.com,Jigsaw!!12,works
mary.burkett@aol.com,Jigsaw!!12,works
levon.massengale@yahoo.com,Jigsaw!!12,works
rachael.riley@aol.com,Jigsaw!!12,works
kristenaliceb@aol.com,Jigsaw!!12,works
andrea.balibay@yahoo.com,Jigsaw!!12,works
tlankford@bellsouth.net,Jigsaw!!12,works
skania@geocities.com,Jigsaw!!12,works
susan.dobkin@msn.com,Jigsaw!!12,works
ariel.hurt@msn.com,4TEibwX8PULNM53,works
rennsoon@aol.com,4TEibwX8PULNM53,works
dwillis@houstonrr.com,4TEibwX8PULNM53,works
teodora.rodriguez@yahoo.com,4TEibwX8PULNM53,works
marion.sanchez@verizon.net,4TEibwX8PULNM53,works
magnuson_ashley@hotmail.com,4TEibwX8PULNM53,works
jcorkins@yahoo.com,4TEibwX8PULNM53,works
shanna.gelb@att.net,4TEibwX8PULNM53,works
jwardrip@aol.com,4TEibwX8PULNM53,works
ajefferson@verizon.net,4TEibwX8PULNM53,works
karen.white10@yahoo.com,4TEibwX8PULNM53,works
proman@worldnet.att.net,4TEibwX8PULNM53,works
frank.reda@bellsouth.net,4TEibwX8PULNM53,works
raahannah@yahoo.com,4TEibwX8PULNM53,works
sphe@yahoo.com,4TEibwX8PULNM53,works
imperfect.girl@yahoo.com,4TEibwX8PULNM53,works
rick8752@hotmail.com,4TEibwX8PULNM53,works
alma.beebe@yahoo.com,4TEibwX8PULNM53,fails
john.duffey@msn.com,4TEibwX8PULNM53,works
nschmidt@aol.com,4TEibwX8PULNM53,works
fallon_mabry07@yahoo.com,4TEibwX8PULNM53,works
pvoris@peoplepc.com,4TEibwX8PULNM53,works
mdalnoot@aol.com,4TEibwX8PULNM53,works
esewing@comcast.net,4TEibwX8PULNM53,works
clifford.scherk@att.net,4TEibwX8PULNM53,works
gdetenbeck@yahoo.com,4TEibwX8PULNM53,works
sarita.marquez@comcast.net,4TEibwX8PULNM53,works
anthony.stine@optonline.net,4TEibwX8PULNM53,fails
lsummerill@yahoo.com,4TEibwX8PULNM53,works
chouska@comcast.net,4TEibwX8PULNM53,works
evelyn.calvi@yahoo.com,4TEibwX8PULNM53,works
ava.lyons@hotmail.com,4TEibwX8PULNM53,works
reuben.marshall@yahoo.com,4TEibwX8PULNM53,works
nseim@yahoo.com,4TEibwX8PULNM53,works
claudia.nelson@pacbell.net,4TEibwX8PULNM53,works
donyale.hamilton@earthlink.net,4TEibwX8PULNM53,works
omar.white@aol.com,4TEibwX8PULNM53,works
meri.laduke@yahoo.com,4TEibwX8PULNM53,works
mmarkues@pacbell.net,4TEibwX8PULNM53,works
angel28l2001@yahoo.com,4TEibwX8PULNM53,works
junior.coe@aol.com,4TEibwX8PULNM53,works
casona.clough@icqmail.com,4TEibwX8PULNM53,works
lsheriff@angelfire.com,4TEibwX8PULNM53,works
charles.breaux@comcast.net,4TEibwX8PULNM53,works
brettly_24@hotmail.com,4TEibwX8PULNM53,works
cjarnol@worldnet.att.net,4TEibwX8PULNM53,works
tminiefield@aol.com,4TEibwX8PULNM53,works
jessica.carter@bellsouth.net,4TEibwX8PULNM53,works
kevin.wesley@excite.com,4TEibwX8PULNM53,works
dianah2@msn.com,4TEibwX8PULNM53,works
leslie.parker@ameritrade.com,4TEibwX8PULNM53,works
alba.vasquez@aol.com,4TEibwX8PULNM53,works
kelly.bianco@comcast.net,4TEibwX8PULNM53,works
rwuetcher@aol.com,4TEibwX8PULNM53,works
roderico.guzman@aol.com,4TEibwX8PULNM53,works
vgonzalez3084@msn.com,4TEibwX8PULNM53,works
amygregg30@yahoo.com,4TEibwX8PULNM53,works
s.seale@aol.com,4TEibwX8PULNM53,works
bbonhommetre@msn.com,4TEibwX8PULNM53,works
fhein@aol.com,4TEibwX8PULNM53,works
lplotkin@aol.com,4TEibwX8PULNM53,works
richardbrown@att.net,4TEibwX8PULNM53,works
pschwartz@twcny.rr.com,4TEibwX8PULNM53,works
dominica.moss@comcast.net,4TEibwX8PULNM53,works
sean.neal@aol.com,4TEibwX8PULNM53,works
daxelrod@hotmail.com,4TEibwX8PULNM53,works
gbolls@aol.com,4TEibwX8PULNM53,works
crudich@yahoo.com,4TEibwX8PULNM53,works
dburnham@ptd.net,4TEibwX8PULNM53,fails
nathaniel.palmer@frontiernet.net,4TEibwX8PULNM53,works
soxbelle@aol.com,4TEibwX8PULNM53,works
rodandcelia@aol.com,4TEibwX8PULNM53,works
ted.foerster@yahoo.com,4TEibwX8PULNM53,fails
michael.finley13@worldnet.att.net,4TEibwX8PULNM53,works
sphinx33sds@yahoo.com,4TEibwX8PULNM53,works
mseigle@cox.net,4TEibwX8PULNM53,works
kevin.hachmeister@hotmail.com,4TEibwX8PULNM53,works
softball4life705@aim.com,4TEibwX8PULNM53,works
eowensbee@aol.com,4TEibwX8PULNM53,works
agober@cox.net,4TEibwX8PULNM53,works
rscott@aol.com,4TEibwX8PULNM53,works
aburgess@earthlink.net,4TEibwX8PULNM53,works
chester.crooks@yahoo.com,4TEibwX8PULNM53,works
kriker@aol.com,4TEibwX8PULNM53,works
vpatek@peoplepc.com,4TEibwX8PULNM53,works
foxhound2k4@aol.com,4TEibwX8PULNM53,works
kathalinal@cs.com,4TEibwX8PULNM53,fails
rodney.downing@hotmail.com,4TEibwX8PULNM53,works
kleip@aol.com,4TEibwX8PULNM53,works
lillyann_18@hotmail.com,4TEibwX8PULNM53,works
tsauls@cs.com,4TEibwX8PULNM53,works
ellen.ross@verizon.net,4TEibwX8PULNM53,works
rudyardf@aol.com,4TEibwX8PULNM53,works
dorothy.peace@yahoo.com,4TEibwX8PULNM53,works
stephen.york@aol.com,4TEibwX8PULNM53,works
lgoo@comcast.net,4TEibwX8PULNM53,works
jere.vanetten@excite.com,4TEibwX8PULNM53,works
michaelo11@earthlink.net,4TEibwX8PULNM53,works
georgetteb@pacbell.net,Jigsaw!!12,works
eugene.lange@yahoo.com,Jigsaw!!12,works
russell.yoyetewa@yahoo.com,Jigsaw!!12,works
samuel.marano@cox.net,Jigsaw!!12,works
cguth2@cox.net,Jigsaw!!12,works
gleigh4204@yahoo.com,Jigsaw!!12,works
jstromer@yahoo.com,Jigsaw!!12,works
jennifer.robertson@att.net,Jigsaw!!12,works
chumley31@bellsouth.net,Jigsaw!!12,works
aedwards@thekdgroup.com,Jigsaw!!12,works
breakdown69s@hotmail.com,Jigsaw!!12,works
rbraley@msn.com,Jigsaw!!12,works
cceralde@aol.com,Jigsaw!!12,works
sarah.looper@yahoo.com,Jigsaw!!12,works
brinderle@yahoo.com,Jigsaw!!12,works
mprice@yahoo.com,Jigsaw!!12,works
jasmineg@mindspring.com,Jigsaw!!12,works
rhooton@excite.com,Jigsaw!!12,works
carchie@excite.com,Jigsaw!!12,works
rbustilloiii@cs.com,Jigsaw!!12,works
phanley@hotmail.com,Jigsaw!!12,works
leslie.wolfe@att.net,Jigsaw!!12,works
lindag@yahoo.com,Jigsaw!!12,fails
claudio.gonzalez@aol.com,Jigsaw!!12,fails
hkolosik@yahoo.com,Jigsaw!!12,works
judith.cushing@earthlink.net,Jigsaw!!12,works
linfield@comcast.net,Jigsaw!!12,works
acarlos@peoplepc.com,Jigsaw!!12,works
pgarlock@yahoo.com,Jigsaw!!12,fails
katie.boudreaux@netscape.net,Jigsaw!!12,works
kbreazell@centurytel.net,Jigsaw!!12,works
pattypoo_1@yahoo.com,Jigsaw!!12,works
sseto@concentric.net,Jigsaw!!12,works
bobpetito@optonline.net,Jigsaw!!12,works
stacy.marler@yahoo.com,Jigsaw!!12,works
wes.jepson@excite.com,Jigsaw!!12,works
tmeier@comcast.net,Jigsaw!!12,works
lindalee.wagner@att.net,Jigsaw!!12,works
gonzalo.mendoza@att.net,Jigsaw!!12,works
gcatt@hotmail.com,Jigsaw!!12,fails
vangrisano@hotmail.com,Jigsaw!!12,works
bleu.walsh@aol.com,Jigsaw!!12,works
dmunson@msn.com,Jigsaw!!12,fails
shirley.mccall@yahoo.com,Jigsaw!!12,works
elundquist@worldnet.att.net,Jigsaw!!12,works
heyiluvchloe@aol.com,Jigsaw!!12,works
mrmrsb@ameritrade.com,Jigsaw!!12,works
jbriglio@aol.com,Jigsaw!!12,works
acoriaty@bellsouth.net,Jigsaw!!12,works
ajacobsen@cs.com,Jigsaw!!12,works
sjorgensen@aol.com,Jigsaw!!12,works
stacey.myrick@go.com,Jigsaw!!12,works
vbeer@yahoo.com,Jigsaw!!12,works
jpawlowske@carolina.rr.com,Jigsaw!!12,works
abandie@att.net,Jigsaw!!12,works
scroall@hotmail.com,Jigsaw!!12,works
jerry.gilliland@yahoo.com,Jigsaw!!12,fails
mpuccini@cox.net,Jigsaw!!12,fails
jillieannne2@comcast.com,Jigsaw!!12,fails
gkuczarski@aol.com,Jigsaw!!12,works
elizabeth.bergan@hotmail.com,Jigsaw!!12,works
travium_byrd@yahoo.com,Jigsaw!!12,works
pcorey@hotmail.com,Jigsaw!!12,works
howard.jones@rocketmail.com,Jigsaw!!12,works
dtaraday@yahoo.com,Jigsaw!!12,works
pthunder@aol.com,Jigsaw!!12,works
corazon.heart1@yahoo.com,Jigsaw!!12,works
gerardwallace@aol.com,Jigsaw!!12,works
dawn.daniels@excite.com,Jigsaw!!12,works
ayalar@adelphia.net,Jigsaw!!12,works
mmelder@optonline.net,Jigsaw!!12,works
ffitzerald@msn.com,Jigsaw!!12,works
ddd1@dc.rr.com,Jigsaw!!12,works
bmelchiors@ix.netcom.com,Jigsaw!!12,works
gdebartolo@comcast.net,Jigsaw!!12,works
jokerswild1@iwon.com,Jigsaw!!12,works
hludford@usa.net,Jigsaw!!12,works
pleyshock@yahoo.com,Jigsaw!!12,works
ccoateslindamsncom@chartermi.net,Jigsaw!!12,works
donna.mangione@earthlink.net,Jigsaw!!12,works
jripnick@aol.com,Jigsaw!!12,works
rhysinger@msn.com,Jigsaw!!12,works
tbronner@hotmail.com,Jigsaw!!12,works
jean.kirkpatrick@att.net,Jigsaw!!12,works
judyamysoumpholphakdy@yahoo.com,Jigsaw!!12,works
lauld@yahoo.com,Jigsaw!!12,works
kraig3@hotmail.com,Jigsaw!!12,works
d1054k@aol.com,Jigsaw!!12,works
jsmith3952@yahoo.com,Jigsaw!!12,works
dgllttljhn@aol.com,Jigsaw!!12,works
h.jenkins@charter.net,Jigsaw!!12,works
daniel.kimble@worldnet.att.net,Jigsaw!!12,works
jtarutis@hotmail.com,Jigsaw!!12,works
kevioyne.allen@aol.com,Jigsaw!!12,works
playaz220@aol.com,Jigsaw!!12,works
bill.hudkins@yahoo.com,Jigsaw!!12,works
elsa.estrada@yahoo.com,Jigsaw!!12,works
dgentz@earthlink.net,Jigsaw!!12,works
shelly.west@hotmail.com,Jigsaw!!12,works
jodi.coleman@worldnet.att.net,Jigsaw!!12,works
johnny.@att.net,Jigsaw!!12,fails
dlundstrom1@ofallon.mo.us,Jigsaw!!12,works
sheri.garrett@worldnet.att.net,Jigsaw!!12,works
quackerss@msn.com,Jigsaw!!12,works
lwilson1344@yahoo.com,Jigsaw!!12,works
jwass@hotmail.com,Jigsaw!!12,works
rscottiii@aol.com,Jigsaw!!12,works
mickey.hunter@att.net,Jigsaw!!12,works
shaun.peck@aol.com,Jigsaw!!12,works
zarrieta@hotmail.com,Jigsaw!!12,works
ogibbons@yahoo.com,Jigsaw!!12,works
glidden37@yahoo.com,Jigsaw!!12,fails
jolivas2003@insightbb.com,Jigsaw!!12,works
donald.proffitt@hotmail.com,Jigsaw!!12,works
amandaw@concentric.net,Jigsaw!!12,works
manichispanic99@aol.com,Jigsaw!!12,works
barbara.mosier@aol.com,Jigsaw!!12,fails
bettina.wood@aol.com,Jigsaw!!12,works
tony.lovina@yahoo.com,Jigsaw!!12,works
robinsonett@yahoo.com,Jigsaw!!12,works
rmintz@gte.net,Jigsaw!!12,works
mterribile@yahoo.com,Jigsaw!!12,works
cmiller2774@yahoo.com,Jigsaw!!12,works
zfriederich@yahoo.com,Jigsaw!!12,works
gaildcooper1@yahoo.com,Jigsaw!!12,works
kcarle@aol.com,Jigsaw!!12,works
rshapiro@latinmail.com,Jigsaw!!12,works
marc.erpenbach@hotmail.com,Jigsaw!!12,works
doris.owen@hotmail.com,Jigsaw!!12,works
criki@cs.com,Jigsaw!!12,works
joan.riddle@yahoo.com,Jigsaw!!12,works
shaun.holmes@myway.com,Jigsaw!!12,works
jshindlerjr@yahoo.com,Jigsaw!!12,works
tstroschein@hotmail.com,Jigsaw!!12,works
groberson@blackvoices.com,Jigsaw!!12,works
kcampbell5098@hotmail.com,Jigsaw!!12,works
asnider@yahoo.com,Jigsaw!!12,works
jenarold.triplett@hotmail.com,Jigsaw!!12,works
smckenzie@onebox.com,Jigsaw!!12,works
cdeacon@hotmail.com,Jigsaw!!12,works
hearns@pacbell.net,Jigsaw!!12,works
colleenm.cabaday@att.net,Jigsaw!!12,works
hugh.lennon@yahoo.com,Jigsaw!!12,works
chad.mcdaniel@onebox.com,Jigsaw!!12,works
bettybrunson@bellsouth.net,Jigsaw!!12,works
rgemaehlich@nycap.rr.com,Jigsaw!!12,works
bcataraso@aol.com,Jigsaw!!12,works
dward4777@bellsouth.net,Jigsaw!!12,works
mchampion@cs.com,Jigsaw!!12,works
jrenishajyahoocom@cs.com,Jigsaw!!12,works
sarah.barto@earthlink.net,Jigsaw!!12,works
malatik@ix.netcom.com,Jigsaw!!12,works
albert.fazio@hotmail.com,Jigsaw!!12,works
afarrantello@att.net,Jigsaw!!12,works
b.seaman@yahoo.com,Jigsaw!!12,works
vgbirds@bellsouth.net,Jigsaw!!12,works
ying.liu@cs.com,Jigsaw!!12,works
jon.hilldog@aol.com,Jigsaw!!12,works
michaelo@charter.net,Jigsaw!!12,works
lesley.daigneau@att.net,Jigsaw!!12,works
mbailey2023@hotmail.com,Jigsaw!!12,works
crystal.cato@yahoo.com,Jigsaw!!12,works
chackworth@frontiernet.net,Jigsaw!!12,works
janice.salvi@hotmail.com,Jigsaw!!12,works
mgiroir@crosswinds.net,Jigsaw!!12,works
johnnes@execpc.com,Jigsaw!!12,works
jdvorak@twcny.rr.com,Jigsaw!!12,works
kjackson1991@aol.com,Jigsaw!!12,works
mmarti@yahoo.com,Jigsaw!!12,works
pamela.carter@comcast.net,Jigsaw!!12,works
tatiana@comcast.net,Jigsaw!!12,works
dclouthier@aol.com,Jigsaw!!12,works
cd5761law@yahoo.com,Jigsaw!!12,works
michaelfirebird@yahoo.com,Jigsaw!!12,works
maria.alonzo@gte.net,Jigsaw!!12,works
ffsedcapek@aol.com,Jigsaw!!12,works
garrett.carpio@comcast.net,Jigsaw!!12,works
ykoome@aol.com,Jigsaw!!12,works
daphne.cpa@xspedius.net,Jigsaw!!12,works
thomas.carpenter@twcny.rr.com,Jigsaw!!12,works
kingirv@aol.com,Jigsaw!!12,works
cburgess@cfl.rr.com,Jigsaw!!12,works
alycewade@yahoo.com,Jigsaw!!12,works
benoit.guidry@yahoo.com,Jigsaw!!12,works
cclift1@cfl.rr.com,Jigsaw!!12,works
dcerniglia@att.net,Jigsaw!!12,works
bryan.gordon@hotmail.com,Jigsaw!!12,works
jgavette@yahoo.com,Jigsaw!!12,works
timothy.bodenmiller@att.net,Jigsaw!!12,works
slopez@cox.net,Jigsaw!!12,works
4myhoop@hughes.net,Jigsaw!!12,works
rrund@comcast.net,Jigsaw!!12,works
ibelt26@aol.com,Jigsaw!!12,works
alanatplay@comcast.net,Jigsaw!!12,works
nbennet@yahoo.com,Jigsaw!!12,works
cmanderfield@cs.com,Jigsaw!!12,works
carlos.hernandez@cs.com,Jigsaw!!12,works
atlantanmc@aol.com,Jigsaw!!12,works
joffutt@yahoo.com,Jigsaw!!12,works
ron.smith@usa.net,Jigsaw!!12,works
tbenoit@netscape.net,Jigsaw!!12,works
mbigmikeh@aol.com,Jigsaw!!12,works
babsrapp1@aol.com,Jigsaw!!12,works
cswinton@att.net,Jigsaw!!12,works
jennifer.diaz@sprintpcs.com,Jigsaw!!12,works
jdailley@localnet.com,Jigsaw!!12,works
gwisky@ptd.net,Jigsaw!!12,works
kirsten.nelson@usa.net,Jigsaw!!12,works
kcrayton@aol.com,Jigsaw!!12,works
micheal.escobedo@bellsouth.net,Jigsaw!!12,works
luckyguy2525@aol.com,Jigsaw!!12,works
mmoorek@adelphia.net,Jigsaw!!12,fails
jschoener@ameritech.net,Jigsaw!!12,fails
sungbong.chang@hotmail.com,Jigsaw!!12,works
brandy_miller_1@live.com,Jigsaw!!12,works
heriberto.jara@hotmail.com,Jigsaw!!12,works
redxraven@hotmail.com,Jigsaw!!12,works
philip.sultzbaugh@att.net,Jigsaw!!12,works
ccockman@hotmail.com,Jigsaw!!12,works
bemanuel@yahoo.com,Jigsaw!!12,works
syoung3024@yahoo.com,Jigsaw!!12,works
mary.crater@worldnet.att.net,Jigsaw!!12,works
susan.barnes@comcast.net,Jigsaw!!12,fails
amendiola@bellsouth.net,Jigsaw!!12,works
anthony_franchina@go.com,Jigsaw!!12,works
jason.noren@bellsouth.net,Jigsaw!!12,fails
